Files already downloaded and verified
VeRi dataset loaded
  subset   | # ids | # tracklets
  ---------------------------
  train    |   575 |    37746
  query    |   200 |     1678
  gallery  |   200 |    11579
  labeled  |   N/A |      575
  unlabel  |   N/A |    37171

Load one-shot split from ./examples/VeRi_init_-1.0.pickle
one-shot

Runing: EF=10%, step 0:	 Nums_to_be_select 3717 	 Ritio 	 Logs-dir 0.1
create dataloader for Training with batch_size 16
create dataloader for Training with batch_size 16
Epoch: [0][17/35]	Time 0.199 (0.491)	Loss 7.214 (6.918)	IDE_Loss 7.214 (6.918)	ExLoss 7.214 (6.918)	IDE_Prec 0.0% (0.0%)	ExPrec 0.0% (0.0%)	
Epoch: [0][34/35]	Time 0.139 (0.311)	Loss 7.504 (7.145)	IDE_Loss 7.504 (7.145)	ExLoss 7.504 (7.145)	IDE_Prec 0.0% (0.0%)	ExPrec 0.0% (0.0%)	
Epoch: [1][17/35]	Time 0.119 (0.149)	Loss 7.015 (6.607)	IDE_Loss 7.015 (6.607)	ExLoss 7.015 (6.607)	IDE_Prec 0.0% (0.0%)	ExPrec 0.0% (0.0%)	
Epoch: [1][34/35]	Time 0.122 (0.139)	Loss 7.357 (6.830)	IDE_Loss 7.357 (6.830)	ExLoss 7.357 (6.830)	IDE_Prec 0.0% (0.0%)	ExPrec 0.0% (0.0%)	
Epoch: [2][17/35]	Time 0.121 (0.136)	Loss 6.596 (6.257)	IDE_Loss 6.596 (6.257)	ExLoss 6.596 (6.257)	IDE_Prec 0.0% (0.4%)	ExPrec 0.0% (0.4%)	
Epoch: [2][34/35]	Time 0.137 (0.132)	Loss 6.474 (6.417)	IDE_Loss 6.474 (6.417)	ExLoss 6.474 (6.417)	IDE_Prec 0.0% (0.2%)	ExPrec 0.0% (0.2%)	
Epoch: [3][17/35]	Time 0.098 (0.145)	Loss 6.075 (5.725)	IDE_Loss 6.075 (5.725)	ExLoss 6.075 (5.725)	IDE_Prec 0.0% (1.5%)	ExPrec 0.0% (1.5%)	
Epoch: [3][34/35]	Time 0.116 (0.137)	Loss 6.361 (6.005)	IDE_Loss 6.361 (6.005)	ExLoss 6.361 (6.005)	IDE_Prec 0.0% (0.7%)	ExPrec 0.0% (0.7%)	
Epoch: [4][17/35]	Time 0.137 (0.159)	Loss 5.416 (5.227)	IDE_Loss 5.416 (5.227)	ExLoss 5.416 (5.227)	IDE_Prec 0.0% (2.6%)	ExPrec 0.0% (2.6%)	
Epoch: [4][34/35]	Time 0.115 (0.141)	Loss 5.342 (5.440)	IDE_Loss 5.342 (5.440)	ExLoss 5.342 (5.440)	IDE_Prec 0.0% (1.7%)	ExPrec 0.0% (1.7%)	
Epoch: [5][17/35]	Time 0.120 (0.145)	Loss 4.946 (4.676)	IDE_Loss 4.946 (4.676)	ExLoss 4.946 (4.676)	IDE_Prec 0.0% (4.8%)	ExPrec 0.0% (4.8%)	
Epoch: [5][34/35]	Time 0.099 (0.127)	Loss 5.488 (4.894)	IDE_Loss 5.488 (4.894)	ExLoss 5.488 (4.894)	IDE_Prec 6.2% (3.3%)	ExPrec 6.2% (3.3%)	
Epoch: [6][17/35]	Time 0.146 (0.141)	Loss 4.731 (4.110)	IDE_Loss 4.731 (4.110)	ExLoss 4.731 (4.110)	IDE_Prec 12.5% (14.0%)	ExPrec 12.5% (14.0%)	
Epoch: [6][34/35]	Time 0.127 (0.138)	Loss 4.986 (4.266)	IDE_Loss 4.986 (4.266)	ExLoss 4.986 (4.266)	IDE_Prec 0.0% (11.4%)	ExPrec 0.0% (11.4%)	
Epoch: [7][17/35]	Time 0.095 (0.146)	Loss 4.010 (3.691)	IDE_Loss 4.010 (3.691)	ExLoss 4.010 (3.691)	IDE_Prec 6.2% (16.9%)	ExPrec 6.2% (16.9%)	
Epoch: [7][34/35]	Time 0.112 (0.128)	Loss 4.102 (3.884)	IDE_Loss 4.102 (3.884)	ExLoss 4.102 (3.884)	IDE_Prec 12.5% (12.7%)	ExPrec 12.5% (12.7%)	
Epoch: [8][17/35]	Time 0.138 (0.154)	Loss 3.195 (2.939)	IDE_Loss 3.195 (2.939)	ExLoss 3.195 (2.939)	IDE_Prec 25.0% (33.1%)	ExPrec 25.0% (33.1%)	
Epoch: [8][34/35]	Time 0.138 (0.141)	Loss 3.415 (3.238)	IDE_Loss 3.415 (3.238)	ExLoss 3.415 (3.238)	IDE_Prec 12.5% (26.8%)	ExPrec 12.5% (26.8%)	
Epoch: [9][17/35]	Time 0.132 (0.153)	Loss 3.329 (2.593)	IDE_Loss 3.329 (2.593)	ExLoss 3.329 (2.593)	IDE_Prec 18.8% (41.5%)	ExPrec 18.8% (41.5%)	
Epoch: [9][34/35]	Time 0.124 (0.140)	Loss 3.718 (2.857)	IDE_Loss 3.718 (2.857)	ExLoss 3.718 (2.857)	IDE_Prec 6.2% (35.5%)	ExPrec 6.2% (35.5%)	
Epoch: [10][17/35]	Time 0.136 (0.158)	Loss 2.735 (2.225)	IDE_Loss 2.735 (2.225)	ExLoss 2.735 (2.225)	IDE_Prec 25.0% (46.7%)	ExPrec 25.0% (46.7%)	
Traceback (most recent call last):
  File "run.py", line 135, in <module>
    main(parser.parse_args())
  File "run.py", line 95, in main
    eug.train(new_train_data, unselected_data, step, loss=args.loss, epochs=args.epochs, step_size=args.step_size, init_lr=0.1) if step != resume_step else eug.resume(ckpt_file, step, init_lr=0.1)
  File "/home/ubuntu/Dhia/431_roadway/mse_log_vehicle_no_ex/my_reid/eug.py", line 93, in train
    r = self.softmax_train(train_data, unselected_data, step, epochs, step_size, init_lr, dropout, loss)
  File "/home/ubuntu/Dhia/431_roadway/mse_log_vehicle_no_ex/my_reid/eug.py", line 148, in softmax_train
    trainer.train(epoch, s_dataloader, u_dataloader, optimizer, use_unselcted_data, print_freq=len(s_dataloader)//2)
  File "/home/ubuntu/Dhia/431_roadway/mse_log_vehicle_no_ex/my_reid/trainers.py", line 76, in train
    weighted_loss.backward()
  File "/usr/local/lib/python3.6/dist-packages/torch/tensor.py", line 150, in backward
    torch.autograd.backward(self, gradient, retain_graph, create_graph)
  File "/usr/local/lib/python3.6/dist-packages/torch/autograd/__init__.py", line 99, in backward
    allow_unreachable=True)  # allow_unreachable flag
KeyboardInterrupt
